<svg xmlns="http://www.w3.org/2000/svg" xmlns:xlink="http://www.w3.org/1999/xlink" viewBox="0 0 360 700">
  <defs>
    <style>
      .cls-1 {
        clip-path: url(#clip-layer2);
      }

      .cls-2 {
        fill: #00541a;
      }

      .cls-3 {
        fill: #fff;
      }
    </style>
    <clipPath id="clip-layer2">
      <rect width="360" height="700"/>
    </clipPath>
  </defs>
  <g id="layer2" class="cls-1">
    <rect class="cls-3" width="360" height="700"/>
    <path id="Tracé_1" data-name="Tracé 1" class="cls-2" d="M310.54,254.919C490.277,303.59,534.08-19.4,688.642,279.857S159.81,402.278,159.81,402.278,130.8,206.248,310.54,254.919Z" transform="translate(-234.812 429.832) rotate(-16)"/>
    <path id="Tracé_2" data-name="Tracé 2" class="cls-2" d="M310.685-59.753c-180.553-40.5-5.829,55.183-203.326,213.032s84.829,247.829,160.663,247.829c102.2,0,185.053-88.419,185.053-197.49S491.237-19.256,310.685-59.753Z" transform="translate(186.419 243.965) rotate(-141)"/>
  </g>
</svg>
